// Jest Snapshot v1, https://goo.gl/fbAQLP

exports[`should render Option correctly 1`] = `
<div
  className="option"
>
  <p
    className="option__text"
  >
    1
    . 
    text
  </p>
  <button
    className="button button--link"
    onClick={[Function]}
  >
    remove
  </button>
</div>
`;
